// Jest Snapshot v1, https://goo.gl/fbAQLP

exports[`MainPage renders 1`] = `
<Fragment>
  <hr
    className="hr-classifier"
  />
  <Main
    className="main"
  >
    <About
      className="section-about"
    />
    <Projects
      className="projects"
    />
    <Quote
      className="section-quote"
    />
    <Contact
      className="section-contact"
    />
  </Main>
  <Recommended
    className="recommended"
  >
    <RecommendedComponent
      key="0"
      recommendedItem={
        Object {
          "img": "test-file-stub",
          "link": "https://google.com",
          "name": "Alicja Kozik",
          "proffesion": "Student & Front-End Dev",
        }
      }
    />
    <RecommendedComponent
      key="1"
      recommendedItem={
        Object {
          "img": "test-file-stub",
          "link": "https://google.com",
          "name": "Jan Kowalski",
          "proffesion": "Ćpun i frajer",
        }
      }
    />
  </Recommended>
  <hr
    className="hr-classifier"
  />
</Fragment>
`;
